{"type": "FeatureCollection",
  "features": [{
    "type": "Feature",
    "id": 0,
    "geometry": {
      "type": "Polygon",
      "coordinates": [[[76.90158631171118, 43.25619123412568], [76.8725755390061, 43.248501990845305], [76.87034394110572, 43.23161975970681], [76.9161775287522, 43.235496833938676], [76.92579056586158, 43.25287810198926], [76.90158631171118, 43.25619123412568]]]
    },
    "options": {"strokeColor": "#FFFFFF", "fillColor": "#FF1F1F70"},
    "properties": {"name": "Тестовая зона 1", "price": "500"}
    },
    {
      "type": "Feature",
      "id": 1,
      "geometry": {
        "type": "Polygon",
        "coordinates": [[[76.93054469573656, 43.26958510216234], [76.95712800949252, 43.27139747296938], [76.95819483672608, 43.264935142501116], [76.95759402190674, 43.264560133846594], [76.95948376257661, 43.250651931670426], [76.9333483179355, 43.24880768432595], [76.93054469573656, 43.26958510216234]]]
      },
      "options": {"strokeColor": "#FFFFFF", "fillColor": "#1F44FF70"},
      "properties": {"name": "Тестовая зона 2", "price": "400"}

  }]}