<svg width="20" height="19" viewBox="0 0 20 19" fill="none" xmlns="http://www.w3.org/2000/svg">
<path d="M9.88628 18.9654C15.0956 18.9654 19.3119 14.7329 19.3119 9.53984C19.3119 4.33054 15.0793 0.114258 9.88628 0.114258C4.69325 0.114258 0.460693 4.33054 0.460693 9.53984C0.460693 14.7329 4.67697 18.9654 9.88628 18.9654ZM9.88628 1.43286C14.363 1.43286 17.9933 5.06309 17.9933 9.53984C17.9933 14.0166 14.363 17.6468 9.88628 17.6468C5.40953 17.6468 1.7793 14.0003 1.7793 9.53984C1.7793 5.06309 5.40953 1.43286 9.88628 1.43286Z" fill="url(#paint0_linear)"/>
<path d="M9.44674 10.6468H12.5886C12.963 10.6468 13.256 10.3537 13.256 9.97932C13.256 9.6049 12.963 9.31188 12.5886 9.31188H10.1142V5.43746C10.1142 5.06304 9.82116 4.77002 9.44674 4.77002C9.07232 4.77002 8.7793 5.06304 8.7793 5.43746V9.97932C8.7793 10.3537 9.07232 10.6468 9.44674 10.6468Z" fill="url(#paint1_linear)"/>
<defs>
<linearGradient id="paint0_linear" x1="9.88628" y1="0.114258" x2="9.88628" y2="18.9654" gradientUnits="userSpaceOnUse">
<stop stop-color="#B7D602"/>
<stop offset="1" stop-color="#68C316"/>
</linearGradient>
<linearGradient id="paint1_linear" x1="11.0177" y1="4.77002" x2="11.0177" y2="10.6468" gradientUnits="userSpaceOnUse">
<stop stop-color="#B7D602"/>
<stop offset="1" stop-color="#68C316"/>
</linearGradient>
</defs>
</svg>
