<svg width="22" height="26" viewBox="0 0 22 26" fill="none" xmlns="http://www.w3.org/2000/svg">
<path fill-rule="evenodd" clip-rule="evenodd" d="M11.4224 15.2893C9.08784 15.2893 7.19527 13.4386 7.19527 11.1557C7.19527 8.87279 9.08784 7.02213 11.4224 7.02213C13.7571 7.02213 15.6496 8.87279 15.6496 11.1557C15.6496 13.4386 13.7571 15.2893 11.4224 15.2893ZM14.1742 11.1559C14.1742 12.6421 12.9421 13.847 11.4223 13.847C9.90238 13.847 8.67028 12.6421 8.67028 11.1559C8.67028 9.66972 9.90238 8.46491 11.4223 8.46491C12.9421 8.46491 14.1742 9.66972 14.1742 11.1559Z" fill="url(#paint0_linear)"/>
<path fill-rule="evenodd" clip-rule="evenodd" d="M13.5669 24.3163C14.7178 23.4202 15.8684 22.4076 16.9452 21.2961C20.0856 18.0546 21.9904 14.6399 21.9904 11.1557C21.9904 5.44843 17.259 0.821777 11.4224 0.821777C5.58592 0.821777 0.854492 5.44843 0.854492 11.1557C0.854492 14.6399 2.75926 18.0546 5.89968 21.2961C6.9765 22.4076 8.12709 23.4202 9.27802 24.3163C9.68148 24.6305 10.0569 24.9082 10.395 25.147C10.6011 25.2925 10.7512 25.3942 10.8362 25.4496C11.1912 25.681 11.6537 25.681 12.0086 25.4496C12.0937 25.3942 12.2438 25.2925 12.4499 25.147C12.788 24.9082 13.1634 24.6305 13.5669 24.3163ZM15.7027 20.3701C14.6254 21.482 13.4679 22.5008 12.3107 23.4018C11.9948 23.6478 11.6971 23.8707 11.4222 24.0692C11.1474 23.8707 10.8497 23.6478 10.5338 23.4018C9.37662 22.5008 8.21905 21.482 7.14181 20.3701C4.13244 17.2639 2.34884 14.0664 2.34884 11.0128C2.34884 6.11263 6.41114 2.1403 11.4222 2.1403C16.4333 2.1403 20.4956 6.11263 20.4956 11.0128C20.4956 14.0664 18.712 17.2639 15.7027 20.3701Z" fill="url(#paint1_linear)"/>
<defs>
<linearGradient id="paint0_linear" x1="11.4224" y1="0.821777" x2="11.4224" y2="25.6232" gradientUnits="userSpaceOnUse">
<stop stop-color="#B7D602"/>
<stop offset="1" stop-color="#68C316"/>
</linearGradient>
<linearGradient id="paint1_linear" x1="11.4224" y1="0.821777" x2="11.4224" y2="25.6232" gradientUnits="userSpaceOnUse">
<stop stop-color="#B7D602"/>
<stop offset="1" stop-color="#68C316"/>
</linearGradient>
</defs>
</svg>
