<svg width="14" height="28" viewBox="0 0 14 28" fill="none" xmlns="http://www.w3.org/2000/svg">
<path d="M0.492577 14.8323H3.48516V27.1522C3.48516 27.3954 3.68225 27.5925 3.92549 27.5925H8.99951C9.24275 27.5925 9.43984 27.3954 9.43984 27.1522V14.8903H12.8801C13.1038 14.8903 13.2919 14.7224 13.3175 14.5002L13.84 9.96466C13.8543 9.83987 13.8148 9.7149 13.7313 9.62129C13.6477 9.52759 13.5281 9.47396 13.4026 9.47396H9.44002V6.63082C9.44002 5.77376 9.90149 5.33916 10.8117 5.33916C10.9415 5.33916 13.4026 5.33916 13.4026 5.33916C13.6459 5.33916 13.843 5.14198 13.843 4.89883V0.735582C13.843 0.492343 13.6459 0.295251 13.4026 0.295251H9.832C9.80682 0.294018 9.75089 0.291992 9.66846 0.291992C9.04892 0.291992 6.89543 0.413612 5.19435 1.97855C3.30955 3.71275 3.57155 5.78918 3.63416 6.14919V9.47387H0.492577C0.249338 9.47387 0.0522461 9.67096 0.0522461 9.9142V14.3918C0.0522461 14.6351 0.249338 14.8323 0.492577 14.8323Z" fill="white"/>
</svg>
