<svg width="29" height="29" viewBox="0 0 29 29" fill="none" xmlns="http://www.w3.org/2000/svg">
<path d="M20.7336 0.0168457H8.10511C3.81655 0.0168457 0.327515 3.52403 0.327515 7.8347V20.5283C0.327515 24.8391 3.81655 28.3461 8.10511 28.3461H20.7336C25.0225 28.3461 28.5115 24.8389 28.5115 20.5283V7.8347C28.5117 3.52403 25.0225 0.0168457 20.7336 0.0168457ZM26.0111 20.5283C26.0111 23.4532 23.6436 25.8326 20.7338 25.8326H8.10511C5.19539 25.8328 2.82814 23.4532 2.82814 20.5283V7.8347C2.82814 4.90998 5.19539 2.53036 8.10511 2.53036H20.7336C23.6435 2.53036 26.0109 4.90998 26.0109 7.8347V20.5283H26.0111Z" fill="white"/>
<path d="M14.4193 6.88184C10.4148 6.88184 7.15698 10.1564 7.15698 14.1816C7.15698 18.2065 10.4148 21.481 14.4193 21.481C18.4238 21.481 21.6816 18.2065 21.6816 14.1816C21.6816 10.1564 18.4238 6.88184 14.4193 6.88184ZM14.4193 18.9673C11.7938 18.9673 9.6576 16.8204 9.6576 14.1814C9.6576 11.5422 11.7936 9.39518 14.4193 9.39518C17.0449 9.39518 19.181 11.5422 19.181 14.1814C19.181 16.8204 17.0448 18.9673 14.4193 18.9673Z" fill="white"/>
<path d="M21.9859 4.75049C21.5041 4.75049 21.0308 4.94654 20.6906 5.29006C20.3486 5.63189 20.1521 6.10778 20.1521 6.59373C20.1521 7.07817 20.3488 7.55389 20.6906 7.8974C21.0307 8.23924 21.5041 8.43697 21.9859 8.43697C22.4693 8.43697 22.9411 8.23924 23.2829 7.8974C23.6246 7.55389 23.8197 7.078 23.8197 6.59373C23.8197 6.10778 23.6246 5.63189 23.2829 5.29006C22.9428 4.94654 22.4693 4.75049 21.9859 4.75049Z" fill="white"/>
</svg>
